{
    "KPlugin": {
        "Icon": "activities",
        "MimeTypes": [
            "application/octet-stream",
            "inode/directory"
        ],
        "Name": "Link Files to Activities",
        "Name[ar]": "اربط الملفات بالأنشطة",
        "Name[be]": "Звязаць файлы з пакоямі",
        "Name[bg]": "Свързване на файлове към дейности",
        "Name[ca@valencia]": "Enllaçat de fitxers amb les activitats",
        "Name[ca]": "Enllaçat de fitxers a les activitats",
        "Name[cs]": "Připojit soubory k aktivitám",
        "Name[da]": "Link filer til aktiviteter",
        "Name[de]": "Datei-Verknüpfung mit Aktivitäten",
        "Name[el]": "Σύνδεση αρχείων με δραστηριότητες",
        "Name[en_GB]": "Link Files to Activities",
        "Name[es]": "Enlazar archivos a actividades",
        "Name[et]": "Failide linkimine tegevustega",
        "Name[eu]": "Estekatu fitxategiak jarduerekin",
        "Name[fi]": "Linkitä aktiviteetteihin tiedostoja",
        "Name[fr]": "Associer les fichiers à des activités",
        "Name[gl]": "Ligar ficheiros con actividades",
        "Name[hu]": "Fájlok linkelése aktivitásokhoz",
        "Name[ia]": "Liga files a Activitates",
        "Name[id]": "Tautan File untuk Aktivitas",
        "Name[ie]": "Ligar files a activitás",
        "Name[it]": "Collega file alle attività",
        "Name[ka]": "ფაილების აქტივობებზე მიბმა",
        "Name[ko]": "파일과 활동 연결",
        "Name[lt]": "Susieti failus su veiklomis",
        "Name[nl]": "Bestanden koppelen aan activiteiten",
        "Name[nn]": "Lenkja filer til aktivitetar",
        "Name[pl]": "Dowiązuj pliki do aktywności",
        "Name[pt]": "Associar Ficheiros a Actividades",
        "Name[pt_BR]": "Link de arquivos para atividades",
        "Name[ro]": "Leagă fișiere de activități",
        "Name[ru]": "Связывание файлов с комнатами",
        "Name[sk]": "Prepojiť súbory s Aktivitami",
        "Name[sl]": "Poveži datoteke z aktivnostmi",
        "Name[sv]": "Länkar filer till aktiviteter",
        "Name[ta]": "கோப்புகளை செயல்பாடுகளுடன் இணை",
        "Name[tr]": "Dosyaları Etkinliklere Bağlantıla",
        "Name[uk]": "Пов'язування файлів із просторами дій",
        "Name[vi]": "Liên kết tệp với Hoạt động",
        "Name[x-test]": "xxLink Files to Activitiesxx",
        "Name[zh_CN]": "将文件关联到活动",
        "Name[zh_TW]": "連結檔案至活動",
        "ServiceTypes": [
            "KFileItemAction/Plugin"
        ]
    }
}
